{
	"Material": {
		"Shader": "@core/surfaces/diffuse_map.isl",
		"MaterialValues": {
			"Value": {
				"Name": "diffuse_map",
				"Type": "tex2D",
				"Value": "assets/laby/iron.jpg",
				"WrapU": "Repeat",
				"WrapV": "Repeat"
			},
			"Value": {
				"Name": "diffuse_color",
				"Type": "vec4",
				"Value": "vec4(0.401966, 0.401966, 0.401966, 1.000000)"
			},
			"Value": {
				"Name": "specular_color",
				"Type": "vec4",
				"Value": "vec4(0.500000, 0.500000, 0.500000, 1.000000)"
			},
			"Value": {
				"Name": "self_color",
				"Type": "vec4",
				"Value": "vec4(0.000000, 0.000000, 0.000000, 1.000000)"
			},
			"Value": {
				"Name": "glossiness",
				"Type": "float",
				"Value": "0.150123"
			}
		}
	}
}