{
	"Material": {
		"Shader": "@core/surfaces/diffuse_specular.isl",
		"MaterialValues": {
			"Value": {
				"Name": "diffuse_color",
				"Type": "vec4",
				"Value": "vec4(0.640000, 0.640000, 0.640000, 1.000000)"
			},
			"Value": {
				"Name": "specular_color",
				"Type": "vec4",
				"Value": "vec4(0.250000, 0.250000, 0.250000, 1.000000)"
			},
			"Value": {
				"Name": "self_color",
				"Type": "vec4",
				"Value": "vec4(0.000000, 0.000000, 0.000000, 1.000000)"
			},
			"Value": {
				"Name": "glossiness",
				"Type": "float",
				"Value": "0.150123"
			}
		}
	}
}