8
50
0
0
NoTrap
0
1
0
NoTrap
0
2
0
NoTrap
0
3
0
NoTrap
0
4
0
NoTrap
0
5
0
NoTrap
0
6
0
NoTrap
0
6
-1
NoTrap
0
6
-2
NoTrap
0
6
-3
NoTrap
0
6
-4
NoTrap
0
7
-4
NoTrap
0
8
-4
NoTrap
0
9
-4
NoTrap
0
10
-4
NoTrap
0
10
-3
NoTrap
0
11
-3
NoTrap
0
12
-3
NoTrap
0
13
-3
NoTrap
0
14
-3
NoTrap
0
14
-4
NoTrap
0
14
-5
NoTrap
0
14
-6
NoTrap
0
14
-7
NoTrap
0
14
-8
NoTrap
0
14
-9
NoTrap
0
14
-10
NoTrap
0
14
-11
NoTrap
0
14
-12
NoTrap
0
15
-12
NoTrap
0
16
-12
NoTrap
0
17
-12
NoTrap
0
18
-12
NoTrap
0
19
-12
NoTrap
0
19
-11
NoTrap
0
19
-10
NoTrap
0
19
-9
NoTrap
0
19
-8
NoTrap
0
20
-8
NoTrap
0
21
-8
NoTrap
0
21
-9
NoTrap
0
21
-10
NoTrap
0
21
-11
NoTrap
0
21
-12
NoTrap
0
22
-12
NoTrap
0
23
-12
NoTrap
0
24
-12
NoTrap
0
25
-12
NoTrap
0
26
-12
NoTrap
0
27
-12
NoTrap
1
exit
15
2
-1
NoTrap
0
2
-2
NoTrap
0
2
-3
NoTrap
0
2
-4
NoTrap
0
2
-5
NoTrap
0
1
-5
NoTrap
0
0
-5
NoTrap
0
-1
-5
NoTrap
0
-2
-5
NoTrap
0
-3
-5
NoTrap
0
-4
-5
NoTrap
0
-5
-5
NoTrap
0
-6
-5
NoTrap
0
-7
-5
NoTrap
0
-8
-5
NoTrap
1
key
5
5
-2
Ball
6
0
4
0
4
-2
NoTrap
0
4
-3
NoTrap
0
4
-4
NoTrap
0
4
-5
NoTrap
0
17
24
-13
NoTrap
0
24
-14
NoTrap
0
24
-15
NoTrap
0
23
-15
NoTrap
0
22
-15
NoTrap
0
21
-15
NoTrap
0
20
-15
NoTrap
0
19
-15
NoTrap
0
18
-15
NoTrap
0
17
-15
NoTrap
0
16
-15
NoTrap
0
15
-15
NoTrap
0
15
-16
NoTrap
0
15
-17
NoTrap
0
16
-17
NoTrap
0
17
-17
NoTrap
0
18
-17
NoTrap
0
14
13
-2
NoTrap
0
13
-1
NoTrap
0
13
0
NoTrap
0
13
1
Stake
2
6
2
0
13
2
NoTrap
0
13
3
NoTrap
0
13
4
NoTrap
0
13
5
NoTrap
0
13
6
NoTrap
0
13
7
NoTrap
0
13
8
NoTrap
0
13
9
NoTrap
0
13
10
NoTrap
0
13
11
NoTrap
0
14
13
-12
NoTrap
0
12
-12
Arrow
4
0
6
0
11
-12
NoTrap
0
10
-12
NoTrap
0
10
-13
NoTrap
0
10
-14
NoTrap
0
10
-15
NoTrap
0
10
-16
NoTrap
0
10
-17
NoTrap
0
9
-17
NoTrap
0
8
-17
NoTrap
0
7
-17
NoTrap
0
6
-17
NoTrap
0
5
-17
NoTrap
0
15
19
-7
NoTrap
0
19
-6
NoTrap
0
19
-5
NoTrap
0
19
-4
NoTrap
0
19
-3
NoTrap
0
20
-3
NoTrap
0
21
-3
NoTrap
0
21
-4
NoTrap
0
22
-4
NoTrap
0
23
-4
NoTrap
0
24
-4
NoTrap
0
25
-4
NoTrap
0
26
-4
Ball
6
0
4
0
27
-4
NoTrap
0
28
-4
NoTrap
0
7
12
-4
NoTrap
0
12
-5
NoTrap
0
12
-6
NoTrap
0
12
-7
NoTrap
0
12
-8
NoTrap
0
12
-9
NoTrap
0
12
-10
NoTrap
0
